{
	"$schema": "./node_modules/nx/schemas/nx-schema.json",
	"affected": {
		"defaultBase": "main"
	},
	"targetDefaults": {
		"build": {
			"dependsOn": ["^build"],
			"inputs": ["production", "^production"],
			"cache": true
		},
		"check": {
			"inputs": ["production", "^production"],
			"cache": true
		},
		"e2e": {
			"inputs": ["default", "^production"],
			"cache": true
		},
		"lint": {
			"inputs": [
				"default",
				"{workspaceRoot}/.eslintrc.json",
				"{workspaceRoot}/.eslintignore",
				"{workspaceRoot}/eslint.config.js"
			],
			"cache": true
		},
		"test": {
			"inputs": [
				"default",
				"^production",
				"{workspaceRoot}/jest.preset.js"
			],
			"cache": true
		},
		"@nx/vite:test": {
			"cache": true,
			"inputs": ["default", "^production"]
		}
	},
	"namedInputs": {
		"default": ["{projectRoot}/**/*", "sharedGlobals"],
		"production": [
			"default",
			"!{projectRoot}/.eslintrc.json",
			"!{projectRoot}/eslint.config.js",
			"!{projectRoot}/**/?(*.)+(spec|test).[jt]s?(x)?(.snap)",
			"!{projectRoot}/tsconfig.spec.json",
			"!{projectRoot}/jest.config.[jt]s",
			"!{projectRoot}/src/test-setup.[jt]s",
			"!{projectRoot}/test-setup.[jt]s"
		],
		"sharedGlobals": []
	},
	"workspaceLayout": {
		"projectNameAndRootFormat": "derived",
		"appsDir": "apps",
		"libsDir": "packages"
	},
	"plugins": [
		"@nxtensions/astro",
		"@nxlv/python",
		"@nx-dotnet/core",
		"@monodon/rust"
	],
	"defaultProject": "kbve.com",
	"generators": {
		"@nx/react": {
			"application": {
				"style": "styled-components",
				"linter": "eslint",
				"bundler": "vite",
				"babel": true
			},
			"library": {
				"style": "styled-components",
				"linter": "eslint",
				"unitTestRunner": "vitest"
			},
			"component": {
				"style": "styled-components"
			}
		}
	},
	"nxCloudAccessToken": "MDVjYTYxYmUtNjU1OS00NTJjLWFhYzQtZWE4MDNlNDkwOGZhfHJlYWQ="
}
